{
    "gain": "0.2",
    "interval": "0.56",
    "n_turn": 165062,
    "frev": 412657.22413208015,
    "trev": 2.4233187777173814e-06,
    "n_part": 500000,
    "rfko_kick": 2.6394752634835335e-06,
    "time_taken": 12601.179005384445,
    "rf10MHz_enable": true,
    "rf10MHz_voltage": 130000.0,
    "rf10MHz_phase": 0,
    "rf10MHz_frequency": 3301257.7930566412,
    "rel_beta": 0.9992366782560054
}