{
    "gain": "0.35",
    "interval": "1.47",
    "n_turn": 165062,
    "frev": 412657.22413208015,
    "trev": 2.4233187777173814e-06,
    "n_part": 500000,
    "rfko_kick": 4.619081711096184e-06,
    "time_taken": 12262.459564685822,
    "rf10MHz_enable": true,
    "rf10MHz_voltage": 130000.0,
    "rf10MHz_phase": 0,
    "rf10MHz_frequency": 3301257.7930566412,
    "rel_beta": 0.9992366782560054
}