{
    "gain": "0.7",
    "interval": "0.32",
    "n_turn": 165062,
    "frev": 412657.22413208015,
    "trev": 2.4233187777173814e-06,
    "n_part": 500000,
    "rfko_kick": 9.238163422192368e-06,
    "time_taken": 11719.980751752853,
    "rf10MHz_enable": true,
    "rf10MHz_voltage": 130000.0,
    "rf10MHz_phase": 0,
    "rf10MHz_frequency": 3301257.7930566412,
    "rel_beta": 0.9992366782560054
}