/opt/conda/lib/python3.9/site-packages/scipy/integrate/_quadpack_py.py:1151: IntegrationWarning: The integral is probably divergent, or slowly convergent.
  quad_r = quad(f, low, high, args=args, full_output=self.full_output,
Traceback (most recent call last):
  File "<string>", line 1, in <module>
  File "/pool/condor/dir_11478/rfko.py", line 353, in run_rfko
    time_before = time.time()
AttributeError: 'str' object has no attribute 'time'
