/opt/conda/lib/python3.9/site-packages/scipy/integrate/_quadpack_py.py:1151: IntegrationWarning: The integral is probably divergent, or slowly convergent.
  quad_r = quad(f, low, high, args=args, full_output=self.full_output,
Traceback (most recent call last):
  File "<string>", line 1, in <module>
  File "/pool/condor/dir_1640/rfko.py", line 340, in run_rfko
    particles = xp.generate_matched_gaussian_bunch(
  File "/opt/conda/lib/python3.9/site-packages/xpart/matched_gaussian.py", line 87, in generate_matched_gaussian_bunch
    zeta, delta = generate_longitudinal_coordinates(
  File "/opt/conda/lib/python3.9/site-packages/xpart/longitudinal/generate_longitudinal.py", line 226, in generate_longitudinal_coordinates
    z_particles, delta_particles, _, _ = matcher.generate(
  File "/opt/conda/lib/python3.9/site-packages/xpart/longitudinal/rfbucket_matching.py", line 188, in generate
    u = uniform(low=xmin, high=xmax, size=n_gen)
  File "mtrand.pyx", line 1121, in numpy.random.mtrand.RandomState.uniform
  File "_common.pyx", line 636, in numpy.random._common.cont
TypeError: 'str' object cannot be interpreted as an integer
