Given RMS bunch length does not fit into bucket. Using (maximum) full bucket RMS bunch length 12.254589270982281m instead.
/opt/conda/lib/python3.9/site-packages/scipy/integrate/_quadpack_py.py:1151: IntegrationWarning: The integral is probably divergent, or slowly convergent.
  quad_r = quad(f, low, high, args=args, full_output=self.full_output,
RFBucketMatcher: failed to converge with Brent method, continuing with Newton-Raphson method.
Traceback (most recent call last):
  File "<string>", line 1, in <module>
  File "/pool/condor/dir_11225/rfko.py", line 310, in run_rfko
    particles = xp.generate_matched_gaussian_bunch(
  File "/opt/conda/lib/python3.9/site-packages/xpart/matched_gaussian.py", line 115, in generate_matched_gaussian_bunch
    part = build_particles(_context=_context, _buffer=_buffer, _offset=_offset,
  File "/opt/conda/lib/python3.9/site-packages/xpart/build_particles.py", line 409, in build_particles
    particles = Particles(_context=_context, _buffer=_buffer, _offset=_offset,
  File "/opt/conda/lib/python3.9/site-packages/xpart/particles/particles_base.py", line 312, in __init__
    self._update_refs(
  File "/opt/conda/lib/python3.9/site-packages/xpart/particles/particles_base.py", line 1667, in _update_refs
    self._setattr_if_consistent('_gamma0',
  File "/opt/conda/lib/python3.9/site-packages/xpart/particles/particles_base.py", line 1615, in _setattr_if_consistent
    self._assert_values_consistent(given_value, computed_value, mask)
  File "/opt/conda/lib/python3.9/site-packages/xpart/particles/particles_base.py", line 1601, in _assert_values_consistent
    raise ValueError(
ValueError: The given value [1.9920177 1.9920177 1.9920177 ... 1.9920177 1.9920177 1.9920177] is not consistent with the computed value [1.9920177 1.9920177 1.9920177 ... 1.9920177 1.9920177 1.9920177]. Difference: [0. 0. 0. ... 0. 0. 0.].
