Parent Directory: .
H-tune: 6.32, H-Chroma: -0.508
V-Tune: 6.256, V-Chroma: -0.246

PFW settings: 
  k1prpfwf: 2.5e-05
  k1prpfwd: -0.000119
  k2prpfwf: 0.012226
  k2prpfwd: -0.020111
> Import Complete, MAD-X is ready to go!
> run_rfko()
> CLA found: ['0.85', '0.56']
Converting sequence "ps":  0%     Converting sequence "ps":  2%     Converting sequence "ps":  4%     Converting sequence "ps":  6%     Converting sequence "ps":  8%     Converting sequence "ps": 10%     Converting sequence "ps": 12%     Converting sequence "ps": 15%     Converting sequence "ps": 17%     Converting sequence "ps": 19%     Converting sequence "ps": 21%     Converting sequence "ps": 23%     Converting sequence "ps": 25%     Converting sequence "ps": 27%     Converting sequence "ps": 29%     Converting sequence "ps": 31%     Converting sequence "ps": 33%     Converting sequence "ps": 35%     Converting sequence "ps": 37%     Converting sequence "ps": 39%     Converting sequence "ps": 41%     Converting sequence "ps": 44%     Converting sequence "ps": 46%     Converting sequence "ps": 48%     Converting sequence "ps": 50%     Converting sequence "ps": 52%     Converting sequence "ps": 54%     Converting sequence "ps": 56%     Converting sequence "ps": 58%     Converting sequence "ps": 60%     Converting sequence "ps": 62%     Converting sequence "ps": 64%     Converting sequence "ps": 66%     Converting sequence "ps": 68%     Converting sequence "ps": 70%     Converting sequence "ps": 73%     Converting sequence "ps": 75%     Converting sequence "ps": 77%     Converting sequence "ps": 79%     Converting sequence "ps": 81%     Converting sequence "ps": 83%     Converting sequence "ps": 85%     Converting sequence "ps": 87%     Converting sequence "ps": 89%     Converting sequence "ps": 91%     Converting sequence "ps": 93%     Converting sequence "ps": 95%     Converting sequence "ps": 97%     Converting sequence "ps": 99%     
> Tracking done, 3137.6427788734436 seconds elapsed
> Dumped Bincount
> Dumped Constants
> Dumped Chirp
! Script Complete !
