Parent Directory: .
H-tune: 6.32, H-Chroma: -0.508
V-Tune: 6.256, V-Chroma: -0.246

PFW settings: 
  k1prpfwf: 2.5e-05
  k1prpfwd: -0.000119
  k2prpfwf: 0.012226
  k2prpfwd: -0.020111
> Import Complete, MAD-X is ready to go!
> run_rfko()
> CLA found: ['0.95', '0.32', '1']
Converting sequence "ps":  0%     Converting sequence "ps":  2%     Converting sequence "ps":  4%     Converting sequence "ps":  6%     Converting sequence "ps":  8%     Converting sequence "ps": 10%     Converting sequence "ps": 12%     Converting sequence "ps": 15%     Converting sequence "ps": 17%     Converting sequence "ps": 19%     Converting sequence "ps": 21%     Converting sequence "ps": 23%     Converting sequence "ps": 25%     Converting sequence "ps": 27%     Converting sequence "ps": 29%     Converting sequence "ps": 31%     Converting sequence "ps": 33%     Converting sequence "ps": 35%     Converting sequence "ps": 37%     Converting sequence "ps": 39%     Converting sequence "ps": 41%     Converting sequence "ps": 44%     Converting sequence "ps": 46%     Converting sequence "ps": 48%     Converting sequence "ps": 50%     Converting sequence "ps": 52%     Converting sequence "ps": 54%     Converting sequence "ps": 56%     Converting sequence "ps": 58%     Converting sequence "ps": 60%     Converting sequence "ps": 62%     Converting sequence "ps": 64%     Converting sequence "ps": 66%     Converting sequence "ps": 68%     Converting sequence "ps": 70%     Converting sequence "ps": 73%     Converting sequence "ps": 75%     Converting sequence "ps": 77%     Converting sequence "ps": 79%     Converting sequence "ps": 81%     Converting sequence "ps": 83%     Converting sequence "ps": 85%     Converting sequence "ps": 87%     Converting sequence "ps": 89%     Converting sequence "ps": 91%     Converting sequence "ps": 93%     Converting sequence "ps": 95%     Converting sequence "ps": 97%     Converting sequence "ps": 99%     
*** Maximum RMS bunch length 12.378373000992204m.
... distance to target bunch length: -1.2132e+01
... distance to target bunch length: -2.1772e-01
... distance to target bunch length: -1.4047e+00
... distance to target bunch length: -1.4043e+00
... distance to target bunch length: -5.9178e-01
... distance to target bunch length: -3.4998e-01
... distance to target bunch length: -1.7078e-01
... distance to target bunch length: -8.0517e-02
... distance to target bunch length: -3.1004e-02
... distance to target bunch length: -8.6564e-03
... distance to target bunch length: -1.2849e-03
... distance to target bunch length: -6.3188e-05
... distance to target bunch length: -4.8757e-07
... distance to target bunch length: -1.8660e-10
--> Bunch length: 12.254589270982276
--> Emittance: 1.885974561761736
> Tracking done, 6255.876456975937 seconds elapsed
> Dumped Bincount
> Dumped Constants
> Dumped Chirp
> Dumped Zeta
! Script Complete !
