{
    "gain": "0.1",
    "interval": "0.83",
    "n_turn": 206328,
    "frev": 412657.22413208015,
    "n_part": 500000,
    "rfko_kick": 1.3197376317417667e-06,
    "time_taken": 15688.582168579102,
    "rf10MHz_enable": true,
    "rf10MHz_voltage": 130000.0,
    "rf10MHz_phase": 0,
    "rf10MHz_frequency": 3301257.7930566412
}