{
    "gain": "0.2",
    "interval": "2.61",
    "n_turn": 206328,
    "frev": 412657.22413208015,
    "n_part": 500000,
    "rfko_kick": 2.6394752634835335e-06,
    "time_taken": 15693.736021518707,
    "rf10MHz_enable": true,
    "rf10MHz_voltage": 130000.0,
    "rf10MHz_phase": 0,
    "rf10MHz_frequency": 3301257.7930566412
}