{
    "gain": "0.35",
    "interval": "0.56",
    "n_turn": 206328,
    "frev": 412657.22413208015,
    "n_part": 500000,
    "rfko_kick": 4.619081711096184e-06,
    "time_taken": 15760.998554944992,
    "rf10MHz_enable": true,
    "rf10MHz_voltage": 130000.0,
    "rf10MHz_phase": 0,
    "rf10MHz_frequency": 3301257.7930566412
}