{
    "gain": "0.3",
    "interval": "1.0",
    "n_turn": 206328,
    "frev": 412657.22413208015,
    "n_part": 500000,
    "rfko_kick": 3.9592128952253e-06,
    "time_taken": 15691.526086568832,
    "rf10MHz_enable": true,
    "rf10MHz_voltage": 130000.0,
    "rf10MHz_phase": 0,
    "rf10MHz_frequency": 3301257.7930566412
}