{
    "gain": "0.4",
    "interval": "0.83",
    "n_turn": 206328,
    "frev": 412657.22413208015,
    "n_part": 500000,
    "rfko_kick": 5.278950526967067e-06,
    "time_taken": 15599.6550283432,
    "rf10MHz_enable": true,
    "rf10MHz_voltage": 130000.0,
    "rf10MHz_phase": 0,
    "rf10MHz_frequency": 3301257.7930566412
}