{
    "distribution": {
        "rel_gamma": 25.598474067,
        "rel_beta": 0.9992366782560054,
        "exn": 1.5e-06,
        "eyn": 1.5e-06,
        "ex": 5.864200550957648e-08,
        "ey": 5.864200550957648e-08,
        "p": 5.392,
        "momentum": 5.392,
        "Brho": 17.9855552,
        "DPP_FACTOR": 0.001
    },
    "quad_collapse": {
        "TUNE_TARGET": 0.33,
        "CHROMATICITY_TARGET": -0.5,
        "N_TURN": 500,
        "DETUNE_QUAD_KNL1": -0.04
    },
    "rfko": {
        "SEPTA": true,
        "EXCITER_SAMPLING_FREQ": 1000000.0,
        "FREV": 412657.22413208004,
        "CHIRP_START": 0.3,
        "CHIRP_STOP": 0.35,
        "CHIRP_INTERVAL": 0.01,
        "N_TURN_CHIRP": 82531,
        "SEPTA_X_MM": -60,
        "GAIN": 0.075,
        "CHIRP_REPETITIONS": 20
    }
}