{
    "gain": "0.05",
    "interval": "31.62",
    "n_turn": 41265,
    "frev": 412657.22413208015,
    "n_part": 500000,
    "rfko_kick": 6.598688158708834e-07,
    "time_taken": 3126.5796620845795
}