{
    "gain": "0.25",
    "interval": "4.22",
    "n_turn": 41265,
    "frev": 412657.22413208015,
    "n_part": 500000,
    "rfko_kick": 3.2993440793544166e-06,
    "time_taken": 3126.8340532779694
}