{
    "gain": "0.2",
    "interval": "17.78",
    "n_turn": 41265,
    "frev": 412657.22413208015,
    "n_part": 500000,
    "rfko_kick": 2.6394752634835335e-06,
    "time_taken": 3120.8924658298492
}