{
    "gain": "0.45",
    "interval": "31.62",
    "n_turn": 41265,
    "frev": 412657.22413208015,
    "n_part": 500000,
    "rfko_kick": 5.938819342837951e-06,
    "time_taken": 3135.7073073387146
}