{
    "gain": "0.55",
    "interval": "74.99",
    "n_turn": 41265,
    "frev": 412657.22413208015,
    "n_part": 500000,
    "rfko_kick": 7.258556974579717e-06,
    "time_taken": 3137.7933900356293
}