{
    "gain": "0.75",
    "interval": "42.17",
    "n_turn": 41265,
    "frev": 412657.22413208015,
    "n_part": 500000,
    "rfko_kick": 9.898032238063252e-06,
    "time_taken": 3117.2806391716003
}