{
    "gain": "0.85",
    "interval": "17.78",
    "n_turn": 41265,
    "frev": 412657.22413208015,
    "n_part": 500000,
    "rfko_kick": 1.1217769869805016e-05,
    "time_taken": 3102.3575637340546
}