{
    "gain": "0.85",
    "interval": "4.22",
    "n_turn": 41265,
    "frev": 412657.22413208015,
    "n_part": 500000,
    "rfko_kick": 1.1217769869805016e-05,
    "time_taken": 3109.2470104694366
}