{
    "gain": "0.95",
    "interval": "13.34",
    "n_turn": 41265,
    "frev": 412657.22413208015,
    "n_part": 500000,
    "rfko_kick": 1.2537507501546784e-05,
    "time_taken": 3071.596715450287
}