{
    "gain": "0.95",
    "interval": "31.62",
    "n_turn": 41265,
    "frev": 412657.22413208015,
    "n_part": 500000,
    "rfko_kick": 1.2537507501546784e-05,
    "time_taken": 3087.8443603515625
}