{
    "gain": "0.9",
    "interval": "23.71",
    "n_turn": 41265,
    "frev": 412657.22413208015,
    "n_part": 500000,
    "rfko_kick": 1.1877638685675902e-05,
    "time_taken": 3110.1685819625854
}