{
    "gain": "1.0",
    "interval": "13.34",
    "n_turn": 41265,
    "frev": 412657.22413208015,
    "n_part": 500000,
    "rfko_kick": 1.3197376317417666e-05,
    "time_taken": 3059.4909970760345
}