{
    "gain": "1.0",
    "interval": "17.78",
    "n_turn": 41265,
    "frev": 412657.22413208015,
    "n_part": 500000,
    "rfko_kick": 1.3197376317417666e-05,
    "time_taken": 3063.1802518367767
}